{
    "id": 36310,
    "name": "When a Treasury is built, they can set taxes (feature in progress)",
    "figures": [
        { "path": "img/web_elections_successful.png", "coords": "313,266,832,294" }
    ],
    "description": "A description of benefits of elected players",
    "steps": [
        "Open Web Client page",
        "Open Current Elections or Previous Elections page"
    ]
}