{
    "id": 36314,
    "name": "Run For Office",
    "figures": [
        { "path": "img/web_main.png", "coords": "29,299,152,331" }
    ],
    "description": "A header of a menu",
    "steps": [
        "Open Web Client page",
        "The string is visible in the side menu, in the Elections section"
    ]
}