{
    "id": 36330,
    "name": "Elections",
    "figures": [
        { "path": "img/web_main.png", "coords": "49,247,158,280" }
    ],
    "description": "A header of a menu section",
    "steps": [
        "Open Web Client page",
        "The string is visible at the top of side menu"
    ]
}