{
    "id": 36381,
    "name": "There are no districts set yet",
    "figures": [
        { "path": "img/web_districts_no_districts.png", "coords": "303,129,538,165" }
    ],
    "description": "",
    "steps": [
        "Open Web Client page",
        "Go to \"View Districts\"",
		"If no district is yet created the message appears"
    ]
}